%YAML 1.1
%TAG !u! tag:unity3d.com,2011:
--- !u!21 &2100000
Material:
  serializedVersion: 6
  m_ObjectHideFlags: 0
  m_CorrespondingSourceObject: {fileID: 0}
  m_PrefabInstance: {fileID: 0}
  m_PrefabAsset: {fileID: 0}
  m_Name: Beach 2
  m_Shader: {fileID: -6465566751694194690, guid: b85c5e2c0d0c9774ab24e77078fc44cb,
    type: 3}
  m_ShaderKeywords: FOAM_SHADOWS_ON INTERSECTION_EFFECTS_ON SHORE_MOVEMENT_ON SURFACE_FOAM_ON
    WATER_LIGHTING_ON WORLD_SPACE_UV_ON
  m_LightmapFlags: 4
  m_EnableInstancingVariants: 0
  m_DoubleSidedGI: 0
  m_CustomRenderQueue: -1
  stringTagMap: {}
  disabledShaderPasses: []
  m_SavedProperties:
    serializedVersion: 3
    m_TexEnvs:
    - _BaseMap:
        m_Texture: {fileID: 0}
        m_Scale: {x: 1, y: 1}
        m_Offset: {x: 0, y: 0}
    - _BumpMap:
        m_Texture: {fileID: 0}
        m_Scale: {x: 1, y: 1}
        m_Offset: {x: 0, y: 0}
    - _CausticsTexture:
        m_Texture: {fileID: 2800000, guid: f2c40b951cee11943a1f6d5ec1b42f2c, type: 3}
        m_Scale: {x: 1, y: 1}
        m_Offset: {x: 0, y: 0}
    - _EmissionMap:
        m_Texture: {fileID: 0}
        m_Scale: {x: 1, y: 1}
        m_Offset: {x: 0, y: 0}
    - _IntersectionFoamTexture:
        m_Texture: {fileID: 2800000, guid: 772031b03d9d46e4ab03e15c8e17718c, type: 3}
        m_Scale: {x: 1, y: 1}
        m_Offset: {x: 0, y: 0}
    - _MainTex:
        m_Texture: {fileID: 0}
        m_Scale: {x: 1, y: 1}
        m_Offset: {x: 0, y: 0}
    - _MetallicGlossMap:
        m_Texture: {fileID: 0}
        m_Scale: {x: 1, y: 1}
        m_Offset: {x: 0, y: 0}
    - _NormalsTexture:
        m_Texture: {fileID: 2800000, guid: a41da5f5671718b47bbc71e9ef691103, type: 3}
        m_Scale: {x: 1, y: 1}
        m_Offset: {x: 0, y: 0}
    - _OcclusionMap:
        m_Texture: {fileID: 0}
        m_Scale: {x: 1, y: 1}
        m_Offset: {x: 0, y: 0}
    - _SpecGlossMap:
        m_Texture: {fileID: 0}
        m_Scale: {x: 1, y: 1}
        m_Offset: {x: 0, y: 0}
    - _SurfaceFoamTexture:
        m_Texture: {fileID: 2800000, guid: d3b0d77dfe711a04c8ff18ecc260aa66, type: 3}
        m_Scale: {x: 1, y: 1}
        m_Offset: {x: 0, y: 0}
    - _WaterColorGradientTexture:
        m_Texture: {fileID: 0}
        m_Scale: {x: 1, y: 1}
        m_Offset: {x: 0, y: 0}
    m_Floats:
    - FOAM_SHADOWS: 1
    - INTERSECTION_EFFECTS: 1
    - SHORE_MOVEMENT: 0
    - SURFACE_FOAM: 1
    - WATER_LIGHTING: 1
    - WORLD_SPACE_UV: 1
    - _AlphaClip: 0
    - _Blend: 0
    - _BumpScale: 1
    - _CausticsDepth: 0.6
    - _CausticsScale: 2.41
    - _CausticsShadowMask: 1
    - _CausticsSpeed: 0.219
    - _CausticsSplit: 0.318
    - _CausticsStrength: -33.3
    - _Cull: 2
    - _Cutoff: 0.5
    - _DstBlend: 0
    - _EnvironmentReflections: 1
    - _FoamShadowDepth: 7
    - _FoamShadowStrength: 0.659
    - _GlossMapScale: 0
    - _Glossiness: 0
    - _GlossyReflections: 0
    - _IntersectionFoamBlend: 0
    - _IntersectionFoamDepth: 0
    - _IntersectionFoamScale: 0.18
    - _IntersectionFoamShadowProjection: 11.5
    - _IntersectionWaterBlend: 1
    - _LightingHardness: 0.9
    - _LightingSmoothness: 0.9
    - _Metallic: 0
    - _NormalsStrength: 0.9
    - _OcclusionStrength: 1
    - _PlanarReflectionFresnel: 2.1
    - _PlanarReflectionStrength: 0
    - _QueueOffset: 0
    - _ReceiveShadows: 1
    - _RefractionStrength: 0.41
    - _ShoreBlend: 1
    - _ShoreDepth: 3
    - _ShoreFade: 1
    - _ShoreFoamBreakupScale: 2.92
    - _ShoreFoamBreakupStrength: -2.11
    - _ShoreFoamFrequency: 0.36
    - _ShoreFoamSpeed: 2.15
    - _ShoreFoamWidth: -1.53
    - _Smoothness: 0.5
    - _SmoothnessTextureChannel: 0
    - _SpecularHighlights: 1
    - _SrcBlend: 1
    - _Surface: 0
    - _SurfaceFoamBlend: 0.2
    - _SurfaceFoamHeightMask: 0
    - _SurfaceFoamHeightMaskSmoothness: 0
    - _SurfaceFoamShadowProjection: 0.5
    - _UnderwaterRefractionStrength: 0.099
    - _WaterColorDepth: 3
    - _WaterColorHorizonDistance: 20
    - _WorkflowMode: 1
    - _ZWrite: 1
    m_Colors:
    - _BaseColor: {r: 1, g: 1, b: 1, a: 1}
    - _Color: {r: 1, g: 1, b: 1, a: 1}
    - _EmissionColor: {r: 0, g: 0, b: 0, a: 1}
    - _IntersectionFoamColor: {r: 1, g: 1, b: 1, a: 1}
    - _IntersectionFoamMovement: {r: 2.1, g: -0.18, b: 0, a: 0}
    - _IntersectionFoamSampling: {r: 4.13, g: 2.37, b: 0, a: 0}
    - _LightingDiffuseColor: {r: 0, g: 0.16895804, b: 0.31132078, a: 1}
    - _LightingSpecularColor: {r: 1, g: 1, b: 1, a: 0}
    - _NormalsMovement: {r: 0.05, g: 0.53, b: 0, a: 0}
    - _ShoreColor: {r: 1, g: 1, b: 1, a: 0}
    - _SpecColor: {r: 0.19999996, g: 0.19999996, b: 0.19999996, a: 1}
    - _SurfaceFoamColor1: {r: 1, g: 1, b: 1, a: 0}
    - _SurfaceFoamColor2: {r: 1, g: 1, b: 1, a: 0.49019608}
    - _SurfaceFoamMovement: {r: 4.03, g: 0, b: 0.355, a: 0.15}
    - _SurfaceFoamSampling: {r: 0.418, g: 0, b: 0, a: 0}
    - _SurfaceFoamTilingAndOffset: {r: 0.409, g: 0.264, b: 2, a: 2}
    - _WaterColorDeep: {r: 0.19023673, g: 0.39591452, b: 0.7075472, a: 1}
    - _WaterColorHorizon: {r: 1, g: 1, b: 1, a: 1}
    - _WaterColorShallow: {r: 0.8349056, g: 0.9005456, b: 1, a: 1}
    - _WaterColorUnderwater: {r: 1, g: 1, b: 1, a: 0}
    - _WaveColor: {r: 1, g: 1, b: 1, a: 0}
    - _WaveDirections: {r: 0.409, g: 0.1, b: 0.573, a: 0.3}
    - _WaveVisuals: {r: 0.05, g: 10, b: 3, a: 0}
--- !u!114 &8979482052499565114
MonoBehaviour:
  m_ObjectHideFlags: 11
  m_CorrespondingSourceObject: {fileID: 0}
  m_PrefabInstance: {fileID: 0}
  m_PrefabAsset: {fileID: 0}
  m_GameObject: {fileID: 0}
  m_Enabled: 1
  m_EditorHideFlags: 0
  m_Script: {fileID: 11500000, guid: d0353a89b1f911e48b9e16bdc9f2e058, type: 3}
  m_Name: 
  m_EditorClassIdentifier: 
  version: 2
